{
	"quiz": [
		{
			"f": "Welche Jahreszeit folgt dem Sommer?",
			"a": ["Frühling", "Winter", "Herbst", "Ostern"],
			"c": 2
		},
		{
			"f": "Die Sonne ist ...?",
			"a": ["ein Planet", "eine Galaxie", "ein Stern", "ein Magnetfeld"],
			"c": 2
		},
		{
			"f": "Was ist die Hauptstadt von Frankreich?",
			"a": ["Paris", "Berlin", "London", "Madrid"],
			"c": 0
		},
		{
			"f": "Der Chinese bereitet seine Speisen nicht im Kochtopf zu, sondern im....?",
			"a": ["Eimer", "Glas", "Wäschetrockner", "Wok"],
			"c": 3
		},
		{
			"f": "Wen will Rotkäppchen im Wald besuchen?",
			"a": ["die Mutter", "den Jäger", "die Großmutter", "den Wolf"],
			"c": 2
		},
		{
			"f": "Welche Farbe ist nicht Teil eines Regenbogens?",
			"a": ["schwarz", "gelb", "grün", "orange"],
			"c": 0
		},
		{
			"f": "Wie heisst die Hauptstadt von China?",
			"a": ["Paris", "Wien", "Peking", "Hongkong"],
			"c": 2
		},
		{
			"f": "Was bedeutet das H in HTML",
			"a": ["Hybrid", "Hyper", "High", "Hong"],
			"c": 1
		},
		{
			"f": "Was bedeutet das L in HTML",
			"a": ["Hyper", "Text", "Markup", "Language"],
			"c": 3
		},
		{
			"f": "Was bedeutet das T in HTML",
			"a": ["Hyper", "Text", "Markup", "Language"],
			"c": 1
		},
		{
			"f": "Was bedeutet das M in HTML",
			"a": ["Hyper", "Text", "Markup", "Language"],
			"c": 2
		},
		{
			"f": "Wenn Nudeln bissfest gekocht sind, dann sind sie ...?",
			"a": ["in memoriam", "ante portas", "il silenzio", "al dente"],
			"c": 3
		},
		{
			"f": "Wovon ernährt sich der Gorilla?",
			"a": ["Fleisch", "Insekten", "Blätter", "Bambussprossen"],
			"c": 2
		},
		{
			"f": "Wie heisst der höchste Berg Europas in den Alpen?",
			"a": ["Mont Blanc", "Großglockner", "Matterhorn", "Dufourspitze"],
			"c": 0
		},
		{
			"f": "Wer wurde 2010 Fußballweltmeister?",
			"a": ["Brasilien", "Deutschland", "Spanien", "Senegal"],
			"c": 2
		},
		{
			"f": "Wer wurde 2006 Fußballweltmeister?",
			"a": ["Brasilien", "Italien", "Spanien", "Frankreich"],
			"c": 1
		},
		{
			"f": "Wie viele Tage hat ein Schaltjahr im gregorianischen Kalender?",
			"a": ["364", "365", "366", "367"],
			"c": 2
		},
		{
			"f": "Aus was wird Tofu gemacht?",
			"a": ["Tofublätter", "Sojabohne", "Maniokwurzel", "Taroblüten"],
			"c": 1
		},
		{
			"f": "Für welche Spezialität ist die französische Stadt Dijon bekannt?",
			"a": ["Champagner", "Gänseleber", "Austern", "Senf"],
			"c": 3
		},

		{
			"f": "Welcher Staat hat die wenigsten Einwohner?",
			"a": ["Tuvalu", "San Marino", "Vatikan", "Monako"],
			"c": 2
		},
		{
			"f": "Neurodermitis ist eine ..?",
			"a": [
				"Nierenerkrankung",
				"Hauterkrankung",
				"Herzerkrankung",
				"Zahnerkrankung"
			],
			"c": 1
		},
		{
			"f": "O du lieber Augustin, ...?",
			"a": [
				"alles am Kinn",
				"nichts in der Birn",
				"alles ist hin",
				"dort ist er drin"
			],
			"c": 2
		},
		{
			"f": "Welcher Fluss fließt durch Rom?",
			"a": ["Po", "Reno", "Tiber", "Isonzo"],
			"c": 2
		},
		{
			"f": "Wann war der erste Mensch auf dem Mond?",
			"a": ["1967", "1969", "1971", "1973"],
			"c": 1
		},
		{
			"f": "Wie heißt die Hauptstadt von Madagaskar?",
			"a": ["Antananarivo", "Freetown", "Lilongwe", "Kampala"],
			"c": 0
		},
		{
			"f": "Wo fand die FußballWM 2018 statt?",
			"a": ["Quatar", "Frankreich", "Südkorea", "Russland"],
			"c": 3
		},
		{
			"f": "Welche jQuery-Methode versteckt HTML-Elemente?",
			"a": ["hidden()", "invisible()", "hide()", "unshow()"],
			"c": 2
		},
		{
			"f": "Wer war der Erfinder des Telefons?",
			"a": [
				"John Fitch",
				"Alessandro Volta",
				"Thomas Edison",
				"Phillip Reis"
			],
			"c": 3
		},

		{
			"f": "Wer gewann erst einmal die Fußball WM? ",
			"a": ["Italien", "England", "Argentinien", "Uruguay"],
			"c": 1
		},

		{
			"f": "Welche Staatsform hat Jamaika ? ",
			"a": ["Republik", "Islamische Republik", "Demokratie", "Monarchie"],
			"c": 3
		},
		{
			"f": "Welcher Planet hat den laengsten Tag ? ",
			"a": ["Venus", "Pluto", "Merkur", "Saturn"],
			"c": 0
		},
		{
			"f": "Microcebus ganzhorni ist ein...",
			"a": ["Fisch", "Käfer", "Affe", "Vogel"],
			"c": 2
		},
		{
			"f": "Wie heisst die Hauptstadt von Tuvalu?",
			"a": ["Funafuti", "Melekeok", "Avarua", "Majuro"],
			"c": 0
		},
		{
			"f": "Nach wem wurde das Eisbärengehege im Tiergarten Schönbrunn benannt?",
			"a": [
				"Kaiserin Sissi",
				"Bundeskanzler Figl",
				"Bundespräsident Heinz Fischer",
				"Kaiser Franz Josef"
			],
			"c": 3
		},
		{
			"f": "Die steinernen Rundbauten in Apulien nennt man ...?",
			"a": ["Trulli", "Salo", "Fisichella", "Barrichello"],
			"c": 0
		},
		{
			"f": "Welcher vom Web-Server übermittelte HTTP-Header bewirkt, dass JavaScript auch AJAX-Aufrufe an Server anderer Domains senden bzw. das Ergebnis empfangen kann?",
			"a": [
				"Access-Control-Allow-Origin",
				"X-Access-Control-Allow-Origin",
				"Access-Control-Origin",
				"X-Access-Control-Origin"
			],
			"c": 0
		},
		{
			"f": "Wie heißt der Herrscher in Mozarts Oper Die Entführung aus dem Serail?",
			"a": ["Bassa Ali", "Bassa Hassan", "Bassa Omar", "Bassa Selim"],
			"c": 3
		},
		{
			"f": "Wo liegt der Ten Degree Channel?",
			"a": [
				"zwischen Finnland und Schweden",
				"zwischen Irland und England",
				"zwischen Sri Lanka und Thailand",
				"westlich von Südafrika"
			],
			"c": 2
		},

		{
			"f": "Farblich gesehen erinnert der im Trend liegende Matcha-Tee an ...?",
			"a": ["Garfield", "Batman", "Shrek", "Snoopy"],
			"c": 2
		},

		{
			"f": "Welche Tiere werden auch in Österreich zum Schutz von Schafherden vor Wölfen eingesetzt? ",
			"a": ["Lamas", "Zebras", "Dingos", "Kängurus"],
			"c": 0
		},

		{
			"f": "Zum Symbol der Sklavenbefreiung wurde in den 1830ern die Liberty Bell in der Independence Hall in ...?",
			"a": ["Washington D. C.", "New York", "Philadelphia", "Boston"],
			"c": 2
		},

		{
			"f": "Namensgebend für die Waldorfschule war eine ...? ",
			"a": [
				"Märchensammlung",
				"Reformpädagogin",
				"Zigarettenfabrik",
				"Glaubensgemeinschaft"
			],
			"c": 2
		}
	]
}
